…
Create the raw lineup data

``` r

raw_data <- prepare_raw_lineup(good_mcmc_list = lawful_good$extra_eyes,
                               evil_mcmc_list = chaotic_evil$extra_eyes,
                               n_chain = 1)
raw_data
#> # A tibble: 2,000 x 6
#>    Iteration Chain Parameter value alignment chain_group
#>        <int> <int> <chr>     <dbl> <chr>           <int>
#>  1         1     1 lambda[1]  536. good                1
#>  2         2     1 lambda[1]  536. good                1
#>  3         3     1 lambda[1]  535. good                1
#>  4         4     1 lambda[1]  535. good                1
#>  5         5     1 lambda[1]  537. good                1
#>  6         6     1 lambda[1]  535. good                1
#>  7         7     1 lambda[1]  537. good                1
#>  8         8     1 lambda[1]  536. good                1
#>  9         9     1 lambda[1]  536. good                1
#> 10        10     1 lambda[1]  536. good                1
#> # ... with 1,990 more rows
```

Create the lineup data

``` r

data_lineup <- add_groups_and_facets(raw_data)

data_lineup
#> # A tibble: 1,000 x 7
#>    chain_group facet Iteration Chain Parameter value alignment
#>          <int> <int>     <int> <int> <chr>     <dbl> <chr>    
#>  1           3     2         1     1 lambda[1]  536. good     
#>  2           3     2         2     1 lambda[1]  537. good     
#>  3           3     2         3     1 lambda[1]  538. good     
#>  4           3     2         4     1 lambda[1]  538. good     
#>  5           3     2         5     1 lambda[1]  538. good     
#>  6           3     2         6     1 lambda[1]  541. good     
#>  7           3     2         7     1 lambda[1]  539. good     
#>  8           3     2         8     1 lambda[1]  539. good     
#>  9           3     2         9     1 lambda[1]  538. good     
#> 10           3     2        10     1 lambda[1]  537. good     
#> # ... with 990 more rows
```
…
